{
  "project_info": {
    "project_number": "198273017638",
    "firebase_url": "https://myapplication-f25fc.firebaseio.com",
    "project_id": "myapplication-f25fc",
    "storage_bucket": "myapplication-f25fc.appspot.com"
  },
  "client": [
    {
      "client_info": {
        "mobilesdk_app_id": "1:198273017638:android:d29ae860eb888334",
        "android_client_info": {
          "package_name": "org.insacc.myapplication"
        }
      },
      "oauth_client": [
        {
          "client_id": "198273017638-c0hitibo80a9dci25vvr9v8pjp2ddeq9.apps.googleusercontent.com",
          "client_type": 1,
          "android_info": {
            "package_name": "org.insacc.myapplication",
            "certificate_hash": "9ab6fff3956b79145276589dea852dbe96e6c0a8"
          }
        },
        {
          "client_id": "198273017638-vrasq3m20cdntf6hv2mnf25o97l4u759.apps.googleusercontent.com",
          "client_type": 3
        }
      ],
      "api_key": [
        {
          "current_key": "AIzaSyDGmcPFQw7zGkD-okkipbvEisK30K9B2wI"
        }
      ],
      "services": {
        "analytics_service": {
          "status": 1
        },
        "appinvite_service": {
          "status": 2,
          "other_platform_oauth_client": [
            {
              "client_id": "198273017638-vrasq3m20cdntf6hv2mnf25o97l4u759.apps.googleusercontent.com",
              "client_type": 3
            }
          ]
        },
        "ads_service": {
          "status": 2
        }
      }
    }
  ],
  "configuration_version": "1"
}